^D:\DOCUMENTS\УНИВЕР\3СЕМЕСТР\АЭВМ\ПРОЕКТ\ПРОЕКТ\STDAFX.CPP
/c /ZI /nologo /W3 /WX- /Od /Oy- /D WIN32 /D _DEBUG /D _CONSOLE /D _UNICODE /D UNICODE /Gm /EHsc /RTC1 /MDd /GS /fp:precise /Zc:wchar_t /Zc:forScope /Yc"StdAfx.h" /Fp"Debug\Проект.pch" /Fo"Debug\\" /Fd"Debug\vc100.pdb" /Gd /TP /analyze- /errorReport:prompt D:\DOCUMENTS\УНИВЕР\3СЕМЕСТР\АЭВМ\ПРОЕКТ\ПРОЕКТ\STDAFX.CPP
^D:\DOCUMENTS\УНИВЕР\3СЕМЕСТР\АЭВМ\ПРОЕКТ\ПРОЕКТ\CLASSES.CPP
/c /ZI /nologo /W3 /WX- /Od /Oy- /D WIN32 /D _DEBUG /D _CONSOLE /D _UNICODE /D UNICODE /Gm /EHsc /RTC1 /MDd /GS /fp:precise /Zc:wchar_t /Zc:forScope /Fo"Debug\\" /Fd"Debug\vc100.pdb" /Gd /TP /analyze- /errorReport:prompt D:\DOCUMENTS\УНИВЕР\3СЕМЕСТР\АЭВМ\ПРОЕКТ\ПРОЕКТ\CLASSES.CPP
^D:\DOCUMENTS\УНИВЕР\3СЕМЕСТР\АЭВМ\ПРОЕКТ\ПРОЕКТ\ПРОЕКТ.CPP
/c /ZI /nologo /W3 /WX- /Od /Oy- /D WIN32 /D _DEBUG /D _CONSOLE /D _UNICODE /D UNICODE /Gm /EHsc /RTC1 /MDd /GS /fp:precise /Zc:wchar_t /Zc:forScope /Fo"Debug\\" /Fd"Debug\vc100.pdb" /Gd /TP /analyze- /errorReport:prompt D:\DOCUMENTS\УНИВЕР\3СЕМЕСТР\АЭВМ\ПРОЕКТ\ПРОЕКТ\ПРОЕКТ.CPP
^C:\USERS\ARTEM\DOCUMENTS\ПРОЕКТFULL\ПРОЕКТ\ПРОЕКТ\STDAFX.CPP
/c /ZI /nologo /W3 /WX- /Od /Oy- /D WIN32 /D _DEBUG /D _CONSOLE /D _UNICODE /D UNICODE /Gm /EHsc /RTC1 /MDd /GS /fp:precise /Zc:wchar_t /Zc:forScope /Yc"StdAfx.h" /Fp"Debug\Проект.pch" /Fo"Debug\\" /Fd"Debug\vc100.pdb" /Gd /TP /analyze- /errorReport:prompt C:\USERS\ARTEM\DOCUMENTS\ПРОЕКТFULL\ПРОЕКТ\ПРОЕКТ\STDAFX.CPP
^C:\USERS\ARTEM\DOCUMENTS\ПРОЕКТFULL\ПРОЕКТ\ПРОЕКТ\CLASSES.CPP
/c /ZI /nologo /W3 /WX- /Od /Oy- /D WIN32 /D _DEBUG /D _CONSOLE /D _UNICODE /D UNICODE /Gm /EHsc /RTC1 /MDd /GS /fp:precise /Zc:wchar_t /Zc:forScope /Fo"Debug\\" /Fd"Debug\vc100.pdb" /Gd /TP /analyze- /errorReport:prompt C:\USERS\ARTEM\DOCUMENTS\ПРОЕКТFULL\ПРОЕКТ\ПРОЕКТ\CLASSES.CPP
^C:\USERS\ARTEM\DOCUMENTS\ПРОЕКТFULL\ПРОЕКТ\ПРОЕКТ\ПРОЕКТ.CPP
/c /ZI /nologo /W3 /WX- /Od /Oy- /D WIN32 /D _DEBUG /D _CONSOLE /D _UNICODE /D UNICODE /Gm /EHsc /RTC1 /MDd /GS /fp:precise /Zc:wchar_t /Zc:forScope /Fo"Debug\\" /Fd"Debug\vc100.pdb" /Gd /TP /analyze- /errorReport:prompt C:\USERS\ARTEM\DOCUMENTS\ПРОЕКТFULL\ПРОЕКТ\ПРОЕКТ\ПРОЕКТ.CPP
