^D:\DOCUMENTS\УНИВЕР\3СЕМЕСТР\АЭВМ\ПРОЕКТ\ПРОЕКТ\STDAFX.CPP
D:\DOCUMENTS\Универ\3семестр\аЭВМ\Проект\Проект\DEBUG\Проект.PCH
D:\DOCUMENTS\Универ\3семестр\аЭВМ\Проект\Проект\DEBUG\STDAFX.OBJ
D:\DOCUMENTS\УНИВЕР\3СЕМЕСТР\АЭВМ\ПРОЕКТ\ПРОЕКТ\DEBUG\VC100.PDB
^D:\DOCUMENTS\УНИВЕР\3СЕМЕСТР\АЭВМ\ПРОЕКТ\ПРОЕКТ\CLASSES.CPP|D:\DOCUMENTS\УНИВЕР\3СЕМЕСТР\АЭВМ\ПРОЕКТ\ПРОЕКТ\ПРОЕКТ.CPP
D:\DOCUMENTS\Универ\3семестр\аЭВМ\Проект\Проект\DEBUG\CLASSES.OBJ
D:\DOCUMENTS\Универ\3семестр\аЭВМ\Проект\Проект\DEBUG\Проект.OBJ
^D:\DOCUMENTS\УНИВЕР\3СЕМЕСТР\АЭВМ\ПРОЕКТ\ПРОЕКТ\CLASSES.CPP
D:\DOCUMENTS\УНИВЕР\3СЕМЕСТР\АЭВМ\ПРОЕКТ\ПРОЕКТ\DEBUG\VC100.PDB
D:\DOCUMENTS\Универ\3семестр\аЭВМ\Проект\Проект\DEBUG\CLASSES.OBJ
^D:\DOCUMENTS\УНИВЕР\3СЕМЕСТР\АЭВМ\ПРОЕКТ\ПРОЕКТ\ПРОЕКТ.CPP
D:\DOCUMENTS\УНИВЕР\3СЕМЕСТР\АЭВМ\ПРОЕКТ\ПРОЕКТ\DEBUG\VC100.PDB
D:\DOCUMENTS\Универ\3семестр\аЭВМ\Проект\Проект\DEBUG\Проект.OBJ
^C:\USERS\ARTEM\DOCUMENTS\ПРОЕКТFULL\ПРОЕКТ\ПРОЕКТ\STDAFX.CPP
C:\USERS\ARTEM\DOCUMENTS\ПроектFULL\Проект\Проект\DEBUG\Проект.PCH
C:\USERS\ARTEM\DOCUMENTS\ПроектFULL\Проект\Проект\DEBUG\STDAFX.OBJ
C:\USERS\ARTEM\DOCUMENTS\ПРОЕКТFULL\ПРОЕКТ\ПРОЕКТ\DEBUG\VC100.PDB
^C:\USERS\ARTEM\DOCUMENTS\ПРОЕКТFULL\ПРОЕКТ\ПРОЕКТ\CLASSES.CPP|C:\USERS\ARTEM\DOCUMENTS\ПРОЕКТFULL\ПРОЕКТ\ПРОЕКТ\ПРОЕКТ.CPP
C:\USERS\ARTEM\DOCUMENTS\ПроектFULL\Проект\Проект\DEBUG\CLASSES.OBJ
C:\USERS\ARTEM\DOCUMENTS\ПроектFULL\Проект\Проект\DEBUG\Проект.OBJ
^C:\USERS\ARTEM\DOCUMENTS\ПРОЕКТFULL\ПРОЕКТ\ПРОЕКТ\CLASSES.CPP
C:\USERS\ARTEM\DOCUMENTS\ПРОЕКТFULL\ПРОЕКТ\ПРОЕКТ\DEBUG\VC100.PDB
C:\USERS\ARTEM\DOCUMENTS\ПроектFULL\Проект\Проект\DEBUG\CLASSES.OBJ
^C:\USERS\ARTEM\DOCUMENTS\ПРОЕКТFULL\ПРОЕКТ\ПРОЕКТ\ПРОЕКТ.CPP
C:\USERS\ARTEM\DOCUMENTS\ПРОЕКТFULL\ПРОЕКТ\ПРОЕКТ\DEBUG\VC100.PDB
